-320 72 -16 48 -48 -80 -136 -56 152
-56 -64 -192 -64 -80 80 -176 224
24 -56 -176 16 -160 -88 -56 -32 -32 280
320 -64 -152 -272 152
-64 64 -8 -72 -80 32 -176 440
-304 -40 208 -24 384
88 -248 640
-72 -80 -16 168 -24 592
-40 24 -96 -72 -48 -56 -32 568
-56 -240 56 -16 -112 -72 -16 -56 304
-40 -80 -64 -32 -24 -32 -64 -40 96 -24 416
-488 -104 -16 -16 336
-48 -24 -16 320 -24 520
-56 344 -152 416
328 -80 568
24 -8 48 -32 -40 -32 -56 -160 528
400 -8 8 -56 -16 -16 440
-168 -8 -56 -8 8 -8 688
-256 -40 -56 -16 -8 -48 520
-16 480 -8 -8 -8 -8 416
