-64 544 -288 72
-656 -104 -184 -24
-536 -24 208 -160 32
-624 128 -208 8
-16 16 -120 -440 -144 216
-8 976
-120 -120 736
-736 -48 -192
-112 -488 -88 -240 -32
-120 -368 -120 -320 -32
-24 -8 944
872 -32 72
-160 -32 -56 720
-552 -120 -128 -56 -64 -32
-408 -312 -8 128 -72 24
-472 -288 -104 -104
-24 960
-320 -32 -152 -136 -16 -216 -72
-824 96 -40 8
-280 24 -344 320
-216 768
-736 -56 -24 -72 -72
-712 -88 -112 -8 -40
-784 -32 -144 -8
-40 944
-24 -488 -208 -168 -8 -32 -16
-48 -120 -72 496 -112 -80 16
-304 -160 -80 -88 -296 -24
-616 -288 -72
-376 -264 -40 -32 -88 -112 -32
-656 -304 -16
-248 -416 -64 -240
-224 -680 -16 -48
-8 504 -64 -256 -112 8
-864 -96 -16
